<?xml version="1.0"?>
<!DOCTYPE svg PUBLIC '-//W3C//DTD SVG 1.0//EN'
          'http://www.w3.org/TR/2001/REC-SVG-20010904/DTD/svg10.dtd'>
<svg xmlns:xlink="http://www.w3.org/1999/xlink" style="fill-opacity:1; color-rendering:auto; color-interpolation:auto; text-rendering:auto; stroke:black; stroke-linecap:square; stroke-miterlimit:10; shape-rendering:auto; stroke-opacity:1; fill:black; stroke-dasharray:none; font-weight:normal; stroke-width:1; font-family:'Dialog'; font-style:normal; stroke-linejoin:miter; font-size:12px; stroke-dashoffset:0; image-rendering:auto;" width="560" height="420" xmlns="http://www.w3.org/2000/svg"
><!--Generated by the Batik Graphics2D SVG Generator--><defs id="genericDefs"
  /><g
  ><defs id="defs1"
    ><clipPath clipPathUnits="userSpaceOnUse" id="clipPath1"
      ><path d="M0 0 L560 0 L560 420 L0 420 L0 0 Z"
      /></clipPath
      ><font horiz-adv-x="44.335938" id="font1"
      ><font-face ascent="92.77344" descent="24.414062" units-per-em="100" style="font-style:normal; font-family:SansSerif; font-weight:normal;"
        /><missing-glyph horiz-adv-x="44.335938" d="M4.8906 0 L4.8906 71.0938 L39.4531 71.0938 L39.4531 0 L4.8906 0 ZM9.4688 68.4531 L22.0781 38.875 L34.625 68.4531 L9.4688 68.4531 ZM23.4375 35.5469 L36.8125 4.1094 L36.8125 67 L23.4375 35.5469 ZM7.5156 66.4062 L7.5156 4.6875 L20.6094 35.5469 L7.5156 66.4062 ZM9.4688 2.6406 L34.625 2.6406 L22.0781 32.2344 L9.4688 2.6406 Z"
        /><glyph unicode="0" horiz-adv-x="56.20117" d="M50.5312 30.375 Q50.5312 12.8906 44.5078 5.9531 Q38.4844 -0.9844 28.125 -0.9844 Q18.0625 -0.9844 11.9375 5.7578 Q5.8125 12.5 5.6094 29.25 L5.6094 41.2188 Q5.6094 58.6406 11.7188 65.3594 Q17.8281 72.0781 28.0312 72.0781 Q38.2344 72.0781 44.2891 65.5547 Q50.3438 59.0312 50.5312 42.3281 L50.5312 30.375 ZM41.4531 42.7188 Q41.4531 54.7344 38.0391 59.7188 Q34.625 64.7031 28.0312 64.7031 Q21.6875 64.7031 18.2422 59.8672 Q14.7969 55.0312 14.7031 43.4062 L14.7031 28.9062 Q14.7031 17 18.1953 11.7266 Q21.6875 6.4531 28.125 6.4531 Q34.7188 6.4531 38.0625 11.6484 Q41.4062 16.8438 41.4531 28.5156 L41.4531 42.7188 Z"
        /><glyph unicode="5" horiz-adv-x="56.20117" d="M17.3281 33.8438 L10.1094 35.6875 L13.6719 71.0938 L50.1406 71.0938 L50.1406 62.75 L21.3438 62.75 L19.1875 43.4062 Q24.5625 46.4844 31.0625 46.4844 Q40.875 46.4844 46.5625 40.0156 Q52.25 33.5469 52.25 22.6562 Q52.25 12.4531 46.6797 5.7344 Q41.1094 -0.9844 29.7344 -0.9844 Q21.0938 -0.9844 14.7969 3.875 Q8.5 8.7344 7.5156 18.7031 L16.1094 18.7031 Q17.8281 6.4531 29.7344 6.4531 Q36.1406 6.4531 39.6562 10.7969 Q43.1719 15.1406 43.1719 22.5625 Q43.1719 29.25 39.4844 33.8125 Q35.7969 38.375 28.9531 38.375 Q24.4219 38.375 22.0781 37.1562 Q19.7344 35.9375 17.3281 33.8438 Z"
        /><glyph unicode="1" horiz-adv-x="56.20117" d="M35.5938 71.4844 L35.5938 0 L26.5625 0 L26.5625 60.2031 L8.3438 53.5625 L8.3438 61.7188 L34.1875 71.4844 L35.5938 71.4844 Z"
        /><glyph unicode="2" horiz-adv-x="56.20117" d="M52.4844 7.4219 L52.4844 0 L5.9531 0 L5.9531 6.5 L30.0781 33.3438 Q36.0312 40.0938 38.1094 44.0469 Q40.1875 48 40.1875 52 Q40.1875 57.2344 36.9375 60.9453 Q33.6875 64.6562 27.7812 64.6562 Q20.6562 64.6562 17.1406 60.6016 Q13.625 56.5469 13.625 50.2031 L4.5938 50.2031 Q4.5938 59.1875 10.5 65.6328 Q16.4062 72.0781 27.7812 72.0781 Q37.8438 72.0781 43.5312 66.8516 Q49.2188 61.625 49.2188 53.0781 Q49.2188 46.8281 45.3594 40.5078 Q41.5 34.1875 35.8906 28.0781 L16.8438 7.4219 L52.4844 7.4219 Z"
        /><glyph unicode="3" horiz-adv-x="56.20117" d="M19.0938 32.5625 L19.0938 39.9844 L25.7344 39.9844 Q32.7188 40.0469 36.1328 43.5078 Q39.5469 46.9688 39.5469 52.1562 Q39.5469 64.6562 27.1562 64.6562 Q21.3906 64.6562 17.8281 61.3594 Q14.2656 58.0625 14.2656 52.4844 L5.2188 52.4844 Q5.2188 60.6406 11.25 66.3594 Q17.2812 72.0781 27.1562 72.0781 Q36.7656 72.0781 42.7031 66.9688 Q48.6406 61.8594 48.6406 51.9531 Q48.6406 48 45.9766 43.5078 Q43.3125 39.0156 37.4531 36.5312 Q44.5312 34.2344 47.1172 29.4453 Q49.7031 24.6562 49.7031 19.8281 Q49.7031 9.8594 43.2578 4.4375 Q36.8125 -0.9844 27.2031 -0.9844 Q17.9219 -0.9844 11.2812 4.1719 Q4.6406 9.3281 4.6406 18.7969 L13.6719 18.7969 Q13.6719 13.1875 17.3125 9.8203 Q20.9531 6.4531 27.2031 6.4531 Q33.4062 6.4531 37.0156 9.7188 Q40.625 12.9844 40.625 19.625 Q40.625 26.2656 36.5234 29.4141 Q32.4219 32.5625 25.5312 32.5625 L19.0938 32.5625 Z"
        /><glyph unicode="." horiz-adv-x="26.367188" d="M7.0312 4.7812 Q7.0312 7.0781 8.4688 8.6641 Q9.9062 10.25 12.6406 10.25 Q15.375 10.25 16.8203 8.6641 Q18.2656 7.0781 18.2656 4.7812 Q18.2656 2.5469 16.8203 0.9766 Q15.375 -0.5938 12.6406 -0.5938 Q9.9062 -0.5938 8.4688 0.9766 Q7.0312 2.5469 7.0312 4.7812 Z"
      /></font
    ></defs
    ><g style="fill:white; stroke:white;"
    ><rect x="0" y="0" width="560" style="clip-path:url(#clipPath1); stroke:none;" height="420"
    /></g
    ><g style="fill:white; text-rendering:optimizeSpeed; color-rendering:optimizeSpeed; image-rendering:optimizeSpeed; shape-rendering:crispEdges; stroke:white; color-interpolation:sRGB;"
    ><rect x="0" width="560" height="420" y="0" style="stroke:none;"
      /><path style="stroke:none;" d="M73 374 L507 374 L507 31 L73 31 Z"
    /></g
    ><g style="fill:rgb(38,38,38); text-rendering:geometricPrecision; image-rendering:optimizeQuality; color-rendering:optimizeQuality; stroke-linejoin:round; stroke:rgb(38,38,38); color-interpolation:linearRGB; stroke-width:0.6667;"
    ><line y2="374" style="fill:none;" x1="73" x2="507" y1="374"
      /><line y2="369.66" style="fill:none;" x1="73" x2="73" y1="374"
      /><line y2="369.66" style="fill:none;" x1="145.3333" x2="145.3333" y1="374"
      /><line y2="369.66" style="fill:none;" x1="217.6667" x2="217.6667" y1="374"
      /><line y2="369.66" style="fill:none;" x1="290" x2="290" y1="374"
      /><line y2="369.66" style="fill:none;" x1="362.3333" x2="362.3333" y1="374"
      /><line y2="369.66" style="fill:none;" x1="434.6667" x2="434.6667" y1="374"
      /><line y2="369.66" style="fill:none;" x1="507" x2="507" y1="374"
    /></g
    ><g transform="translate(73,379.3333)" style="font-size:13.3333px; fill:rgb(38,38,38); text-rendering:geometricPrecision; image-rendering:optimizeQuality; color-rendering:optimizeQuality; font-family:'SansSerif'; stroke:rgb(38,38,38); color-interpolation:linearRGB;"
    ><text x="-4" xml:space="preserve" y="13" style="stroke:none;"
      >0</text
    ></g
    ><g transform="translate(145.3333,379.3333)" style="font-size:13.3333px; fill:rgb(38,38,38); text-rendering:geometricPrecision; image-rendering:optimizeQuality; color-rendering:optimizeQuality; font-family:'SansSerif'; stroke:rgb(38,38,38); color-interpolation:linearRGB;"
    ><text x="-4" xml:space="preserve" y="13" style="stroke:none;"
      >5</text
    ></g
    ><g transform="translate(217.6667,379.3333)" style="font-size:13.3333px; fill:rgb(38,38,38); text-rendering:geometricPrecision; image-rendering:optimizeQuality; color-rendering:optimizeQuality; font-family:'SansSerif'; stroke:rgb(38,38,38); color-interpolation:linearRGB;"
    ><text x="-7.5" xml:space="preserve" y="13" style="stroke:none;"
      >10</text
    ></g
    ><g transform="translate(290,379.3333)" style="font-size:13.3333px; fill:rgb(38,38,38); text-rendering:geometricPrecision; image-rendering:optimizeQuality; color-rendering:optimizeQuality; font-family:'SansSerif'; stroke:rgb(38,38,38); color-interpolation:linearRGB;"
    ><text x="-7.5" xml:space="preserve" y="13" style="stroke:none;"
      >15</text
    ></g
    ><g transform="translate(362.3333,379.3333)" style="font-size:13.3333px; fill:rgb(38,38,38); text-rendering:geometricPrecision; image-rendering:optimizeQuality; color-rendering:optimizeQuality; font-family:'SansSerif'; stroke:rgb(38,38,38); color-interpolation:linearRGB;"
    ><text x="-7.5" xml:space="preserve" y="13" style="stroke:none;"
      >20</text
    ></g
    ><g transform="translate(434.6667,379.3333)" style="font-size:13.3333px; fill:rgb(38,38,38); text-rendering:geometricPrecision; image-rendering:optimizeQuality; color-rendering:optimizeQuality; font-family:'SansSerif'; stroke:rgb(38,38,38); color-interpolation:linearRGB;"
    ><text x="-7.5" xml:space="preserve" y="13" style="stroke:none;"
      >25</text
    ></g
    ><g transform="translate(507,379.3333)" style="font-size:13.3333px; fill:rgb(38,38,38); text-rendering:geometricPrecision; image-rendering:optimizeQuality; color-rendering:optimizeQuality; font-family:'SansSerif'; stroke:rgb(38,38,38); color-interpolation:linearRGB;"
    ><text x="-7.5" xml:space="preserve" y="13" style="stroke:none;"
      >30</text
    ></g
    ><g style="fill:rgb(38,38,38); text-rendering:geometricPrecision; image-rendering:optimizeQuality; color-rendering:optimizeQuality; stroke-linejoin:round; stroke:rgb(38,38,38); color-interpolation:linearRGB; stroke-width:0.6667;"
    ><line y2="31" style="fill:none;" x1="73" x2="73" y1="374"
      /><line y2="374" style="fill:none;" x1="73" x2="77.34" y1="374"
      /><line y2="325" style="fill:none;" x1="73" x2="77.34" y1="325"
      /><line y2="276" style="fill:none;" x1="73" x2="77.34" y1="276"
      /><line y2="227" style="fill:none;" x1="73" x2="77.34" y1="227"
      /><line y2="178" style="fill:none;" x1="73" x2="77.34" y1="178"
      /><line y2="129" style="fill:none;" x1="73" x2="77.34" y1="129"
      /><line y2="80" style="fill:none;" x1="73" x2="77.34" y1="80"
      /><line y2="31" style="fill:none;" x1="73" x2="77.34" y1="31"
    /></g
    ><g transform="translate(67.6667,374)" style="font-size:13.3333px; fill:rgb(38,38,38); text-rendering:geometricPrecision; image-rendering:optimizeQuality; color-rendering:optimizeQuality; font-family:'SansSerif'; stroke:rgb(38,38,38); color-interpolation:linearRGB;"
    ><text x="-8" xml:space="preserve" y="4.5" style="stroke:none;"
      >0</text
    ></g
    ><g transform="translate(67.6667,325)" style="font-size:13.3333px; fill:rgb(38,38,38); text-rendering:geometricPrecision; image-rendering:optimizeQuality; color-rendering:optimizeQuality; font-family:'SansSerif'; stroke:rgb(38,38,38); color-interpolation:linearRGB;"
    ><text x="-26" xml:space="preserve" y="4.5" style="stroke:none;"
      >0.05</text
    ></g
    ><g transform="translate(67.6667,276)" style="font-size:13.3333px; fill:rgb(38,38,38); text-rendering:geometricPrecision; image-rendering:optimizeQuality; color-rendering:optimizeQuality; font-family:'SansSerif'; stroke:rgb(38,38,38); color-interpolation:linearRGB;"
    ><text x="-19" xml:space="preserve" y="4.5" style="stroke:none;"
      >0.1</text
    ></g
    ><g transform="translate(67.6667,227)" style="font-size:13.3333px; fill:rgb(38,38,38); text-rendering:geometricPrecision; image-rendering:optimizeQuality; color-rendering:optimizeQuality; font-family:'SansSerif'; stroke:rgb(38,38,38); color-interpolation:linearRGB;"
    ><text x="-26" xml:space="preserve" y="4.5" style="stroke:none;"
      >0.15</text
    ></g
    ><g transform="translate(67.6667,178)" style="font-size:13.3333px; fill:rgb(38,38,38); text-rendering:geometricPrecision; image-rendering:optimizeQuality; color-rendering:optimizeQuality; font-family:'SansSerif'; stroke:rgb(38,38,38); color-interpolation:linearRGB;"
    ><text x="-19" xml:space="preserve" y="4.5" style="stroke:none;"
      >0.2</text
    ></g
    ><g transform="translate(67.6667,129)" style="font-size:13.3333px; fill:rgb(38,38,38); text-rendering:geometricPrecision; image-rendering:optimizeQuality; color-rendering:optimizeQuality; font-family:'SansSerif'; stroke:rgb(38,38,38); color-interpolation:linearRGB;"
    ><text x="-26" xml:space="preserve" y="4.5" style="stroke:none;"
      >0.25</text
    ></g
    ><g transform="translate(67.6667,80)" style="font-size:13.3333px; fill:rgb(38,38,38); text-rendering:geometricPrecision; image-rendering:optimizeQuality; color-rendering:optimizeQuality; font-family:'SansSerif'; stroke:rgb(38,38,38); color-interpolation:linearRGB;"
    ><text x="-19" xml:space="preserve" y="4.5" style="stroke:none;"
      >0.3</text
    ></g
    ><g transform="translate(67.6667,31)" style="font-size:13.3333px; fill:rgb(38,38,38); text-rendering:geometricPrecision; image-rendering:optimizeQuality; color-rendering:optimizeQuality; font-family:'SansSerif'; stroke:rgb(38,38,38); color-interpolation:linearRGB;"
    ><text x="-26" xml:space="preserve" y="4.5" style="stroke:none;"
      >0.35</text
    ></g
    ><g style="stroke-linecap:butt; fill:rgb(0,114,189); text-rendering:geometricPrecision; image-rendering:optimizeQuality; color-rendering:optimizeQuality; stroke-linejoin:round; stroke:rgb(0,114,189); color-interpolation:linearRGB; stroke-width:0.6667;"
    ><path d="M87.4667 235.4278 L101.9333 311.2688 L116.4 291.546 L130.8667 91.6048 L145.3333 103.9552 L159.8 92.6199 L174.2667 237.3541 L188.7333 155.0321 L203.2 227.8074 L217.6667 253.8712 L232.1333 211.8263 L246.6 300.5568 L261.0667 275.1306 L275.5333 306.9132 L290 294.1149 L304.4667 144.346 L318.9333 75.9169 L333.4 295.1964 L347.8667 211.2018 L362.3333 102.4608 L376.8 72.4788 L391.2667 326.849 L405.7333 254.8014 L420.2 291.1898 L434.6667 47.9766 L449.1333 246.7533 L463.6 139.7798 L478.0667 274.9077 L492.5333 352.9956 L507 182.8967" style="fill:none; fill-rule:evenodd;"
    /></g
  ></g
></svg
>
