<?xml version="1.0"?>
<!DOCTYPE svg PUBLIC '-//W3C//DTD SVG 1.0//EN'
          'http://www.w3.org/TR/2001/REC-SVG-20010904/DTD/svg10.dtd'>
<svg xmlns:xlink="http://www.w3.org/1999/xlink" style="fill-opacity:1; color-rendering:auto; color-interpolation:auto; text-rendering:auto; stroke:black; stroke-linecap:square; stroke-miterlimit:10; shape-rendering:auto; stroke-opacity:1; fill:black; stroke-dasharray:none; font-weight:normal; stroke-width:1; font-family:'Dialog'; font-style:normal; stroke-linejoin:miter; font-size:12px; stroke-dashoffset:0; image-rendering:auto;" width="570" height="413" xmlns="http://www.w3.org/2000/svg"
><!--Generated by the Batik Graphics2D SVG Generator--><defs id="genericDefs"
  /><g
  ><defs id="defs1"
    ><clipPath clipPathUnits="userSpaceOnUse" id="clipPath1"
      ><path d="M0 0 L570 0 L570 413 L0 413 L0 0 Z"
      /></clipPath
      ><font horiz-adv-x="44.335938" id="font1"
      ><font-face ascent="92.77344" descent="24.414062" units-per-em="100" style="font-style:normal; font-family:SansSerif; font-weight:normal;"
        /><missing-glyph horiz-adv-x="44.335938" d="M4.8906 0 L4.8906 71.0938 L39.4531 71.0938 L39.4531 0 L4.8906 0 ZM9.4688 68.4531 L22.0781 38.875 L34.625 68.4531 L9.4688 68.4531 ZM23.4375 35.5469 L36.8125 4.1094 L36.8125 67 L23.4375 35.5469 ZM7.5156 66.4062 L7.5156 4.6875 L20.6094 35.5469 L7.5156 66.4062 ZM9.4688 2.6406 L34.625 2.6406 L22.0781 32.2344 L9.4688 2.6406 Z"
        /><glyph unicode="0" horiz-adv-x="56.20117" d="M50.5312 30.375 Q50.5312 12.8906 44.5078 5.9531 Q38.4844 -0.9844 28.125 -0.9844 Q18.0625 -0.9844 11.9375 5.7578 Q5.8125 12.5 5.6094 29.25 L5.6094 41.2188 Q5.6094 58.6406 11.7188 65.3594 Q17.8281 72.0781 28.0312 72.0781 Q38.2344 72.0781 44.2891 65.5547 Q50.3438 59.0312 50.5312 42.3281 L50.5312 30.375 ZM41.4531 42.7188 Q41.4531 54.7344 38.0391 59.7188 Q34.625 64.7031 28.0312 64.7031 Q21.6875 64.7031 18.2422 59.8672 Q14.7969 55.0312 14.7031 43.4062 L14.7031 28.9062 Q14.7031 17 18.1953 11.7266 Q21.6875 6.4531 28.125 6.4531 Q34.7188 6.4531 38.0625 11.6484 Q41.4062 16.8438 41.4531 28.5156 L41.4531 42.7188 Z"
        /><glyph unicode="4" horiz-adv-x="56.20117" d="M2.5938 21.8281 L34.4219 71.0938 L44.0469 71.0938 L44.0469 23.9219 L53.9531 23.9219 L53.9531 16.5 L44.0469 16.5 L44.0469 0 L35.0156 0 L35.0156 16.5 L2.5938 16.5 L2.5938 21.8281 ZM12.8438 23.9219 L35.0156 23.9219 L35.0156 58.8438 L33.8906 56.8438 L12.8438 23.9219 Z"
        /><glyph unicode="5" horiz-adv-x="56.20117" d="M17.3281 33.8438 L10.1094 35.6875 L13.6719 71.0938 L50.1406 71.0938 L50.1406 62.75 L21.3438 62.75 L19.1875 43.4062 Q24.5625 46.4844 31.0625 46.4844 Q40.875 46.4844 46.5625 40.0156 Q52.25 33.5469 52.25 22.6562 Q52.25 12.4531 46.6797 5.7344 Q41.1094 -0.9844 29.7344 -0.9844 Q21.0938 -0.9844 14.7969 3.875 Q8.5 8.7344 7.5156 18.7031 L16.1094 18.7031 Q17.8281 6.4531 29.7344 6.4531 Q36.1406 6.4531 39.6562 10.7969 Q43.1719 15.1406 43.1719 22.5625 Q43.1719 29.25 39.4844 33.8125 Q35.7969 38.375 28.9531 38.375 Q24.4219 38.375 22.0781 37.1562 Q19.7344 35.9375 17.3281 33.8438 Z"
        /><glyph unicode="6" horiz-adv-x="56.20117" d="M51.4219 23.1875 Q51.4219 13.0938 45.7812 6.0547 Q40.1406 -0.9844 29.3438 -0.9844 Q21.6875 -0.9844 16.6094 3.0938 Q11.5312 7.1719 9.0156 13.4531 Q6.5 19.7344 6.5 26.3125 L6.5 30.5625 Q6.5 40.5781 9.3047 49.9062 Q12.1094 59.2344 19.4844 65.2109 Q26.8594 71.1875 40.5781 71.1875 L41.3594 71.1875 L41.3594 63.5312 Q31.8906 63.5312 26.6406 60.2109 Q21.3906 56.8906 18.8281 51.5938 Q16.2656 46.2969 15.7188 40.2344 Q21.3906 46.625 31 46.625 Q38.0938 46.625 42.6094 43.2109 Q47.125 39.7969 49.2734 34.3984 Q51.4219 29 51.4219 23.1875 ZM15.5781 26.0312 Q15.5781 16.5469 19.8047 11.5234 Q24.0312 6.5 29.3438 6.5 Q35.5938 6.5 39.0391 11.0625 Q42.4844 15.625 42.4844 22.75 Q42.4844 29.1094 39.3125 34.1328 Q36.1406 39.1562 29.5469 39.1562 Q24.8125 39.1562 20.9531 36.3281 Q17.0938 33.5 15.5781 29.4375 L15.5781 26.0312 Z"
        /><glyph unicode="7" horiz-adv-x="56.20117" d="M51.8594 71.0938 L51.8594 66.0156 L22.4062 0 L12.8906 0 L42.2812 63.6719 L3.8125 63.6719 L3.8125 71.0938 L51.8594 71.0938 Z"
        /><glyph unicode="8" horiz-adv-x="56.20117" d="M50.6875 19.2344 Q50.6875 9.4688 44.1641 4.2422 Q37.6406 -0.9844 28.0703 -0.9844 Q18.5 -0.9844 11.9844 4.2422 Q5.4688 9.4688 5.4688 19.2344 Q5.4688 25.2031 8.6641 29.7656 Q11.8594 34.3281 17.3281 36.6719 Q12.5938 38.9688 9.8359 43.1641 Q7.0781 47.3594 7.0781 52.5938 Q7.0781 61.9219 13.0156 67 Q18.9531 72.0781 28.0312 72.0781 Q37.1562 72.0781 43.0938 67 Q49.0312 61.9219 49.0312 52.5938 Q49.0312 47.3125 46.1953 43.1406 Q43.3594 38.9688 38.625 36.6719 Q44.1406 34.3281 47.4141 29.7344 Q50.6875 25.1406 50.6875 19.2344 ZM39.9844 52.4375 Q39.9844 57.7656 36.6641 61.2109 Q33.3438 64.6562 28.0234 64.6562 Q22.7031 64.6562 19.4297 61.3594 Q16.1562 58.0625 16.1562 52.4375 Q16.1562 46.9219 19.4297 43.6016 Q22.7031 40.2812 28.0781 40.2812 Q33.4062 40.2812 36.6953 43.6016 Q39.9844 46.9219 39.9844 52.4375 ZM41.6094 19.4375 Q41.6094 25.3906 37.8203 29.1484 Q34.0312 32.9062 27.9844 32.9062 Q21.7812 32.9062 18.1406 29.1484 Q14.5 25.3906 14.5 19.4375 Q14.5 13.2812 18.1406 9.8672 Q21.7812 6.4531 28.0781 6.4531 Q34.375 6.4531 37.9922 9.8672 Q41.6094 13.2812 41.6094 19.4375 Z"
        /><glyph unicode="9" horiz-adv-x="56.20117" d="M49.6094 40.0469 Q49.6094 33.1094 48.4141 26.0547 Q47.2188 19 43.7734 13.0625 Q40.3281 7.125 33.6172 3.5156 Q26.9062 -0.0938 14.8906 -0.0938 L14.8906 7.5625 Q25.6875 7.5625 30.9375 10.9375 Q36.1875 14.3125 38.2578 19.7578 Q40.3281 25.2031 40.5781 31.3438 Q37.75 27.9844 33.7891 25.8828 Q29.8281 23.7812 25.2031 23.7812 Q18.1719 23.7812 13.6797 27.2969 Q9.1875 30.8125 7.0391 36.2578 Q4.8906 41.7031 4.8906 47.5156 Q4.8906 57.6719 10.4766 64.875 Q16.0625 72.0781 26.9531 72.0781 Q35.0625 72.0781 40.0625 67.875 Q45.0625 63.6719 47.3359 57.0781 Q49.6094 50.4844 49.6094 43.3125 L49.6094 40.0469 ZM13.7656 48 Q13.7656 41.6562 16.9688 36.4766 Q20.1719 31.2969 26.6562 31.2969 Q31.2969 31.2969 35.0859 34.0781 Q38.875 36.8594 40.625 40.9688 L40.625 44.5312 Q40.625 54.25 36.5 59.4219 Q32.375 64.5938 26.9531 64.5938 Q20.6562 64.5938 17.2109 59.8359 Q13.7656 55.0781 13.7656 48 Z"
        /><glyph unicode="." horiz-adv-x="26.367188" d="M7.0312 4.7812 Q7.0312 7.0781 8.4688 8.6641 Q9.9062 10.25 12.6406 10.25 Q15.375 10.25 16.8203 8.6641 Q18.2656 7.0781 18.2656 4.7812 Q18.2656 2.5469 16.8203 0.9766 Q15.375 -0.5938 12.6406 -0.5938 Q9.9062 -0.5938 8.4688 0.9766 Q7.0312 2.5469 7.0312 4.7812 Z"
        /><glyph unicode="1" horiz-adv-x="56.20117" d="M35.5938 71.4844 L35.5938 0 L26.5625 0 L26.5625 60.2031 L8.3438 53.5625 L8.3438 61.7188 L34.1875 71.4844 L35.5938 71.4844 Z"
        /><glyph unicode="2" horiz-adv-x="56.20117" d="M52.4844 7.4219 L52.4844 0 L5.9531 0 L5.9531 6.5 L30.0781 33.3438 Q36.0312 40.0938 38.1094 44.0469 Q40.1875 48 40.1875 52 Q40.1875 57.2344 36.9375 60.9453 Q33.6875 64.6562 27.7812 64.6562 Q20.6562 64.6562 17.1406 60.6016 Q13.625 56.5469 13.625 50.2031 L4.5938 50.2031 Q4.5938 59.1875 10.5 65.6328 Q16.4062 72.0781 27.7812 72.0781 Q37.8438 72.0781 43.5312 66.8516 Q49.2188 61.625 49.2188 53.0781 Q49.2188 46.8281 45.3594 40.5078 Q41.5 34.1875 35.8906 28.0781 L16.8438 7.4219 L52.4844 7.4219 Z"
        /><glyph unicode="3" horiz-adv-x="56.20117" d="M19.0938 32.5625 L19.0938 39.9844 L25.7344 39.9844 Q32.7188 40.0469 36.1328 43.5078 Q39.5469 46.9688 39.5469 52.1562 Q39.5469 64.6562 27.1562 64.6562 Q21.3906 64.6562 17.8281 61.3594 Q14.2656 58.0625 14.2656 52.4844 L5.2188 52.4844 Q5.2188 60.6406 11.25 66.3594 Q17.2812 72.0781 27.1562 72.0781 Q36.7656 72.0781 42.7031 66.9688 Q48.6406 61.8594 48.6406 51.9531 Q48.6406 48 45.9766 43.5078 Q43.3125 39.0156 37.4531 36.5312 Q44.5312 34.2344 47.1172 29.4453 Q49.7031 24.6562 49.7031 19.8281 Q49.7031 9.8594 43.2578 4.4375 Q36.8125 -0.9844 27.2031 -0.9844 Q17.9219 -0.9844 11.2812 4.1719 Q4.6406 9.3281 4.6406 18.7969 L13.6719 18.7969 Q13.6719 13.1875 17.3125 9.8203 Q20.9531 6.4531 27.2031 6.4531 Q33.4062 6.4531 37.0156 9.7188 Q40.625 12.9844 40.625 19.625 Q40.625 26.2656 36.5234 29.4141 Q32.4219 32.5625 25.5312 32.5625 L19.0938 32.5625 Z"
      /></font
    ></defs
    ><g style="fill:white; stroke:white;"
    ><rect x="0" y="0" width="570" style="clip-path:url(#clipPath1); stroke:none;" height="413"
    /></g
    ><g style="fill:white; text-rendering:optimizeSpeed; color-rendering:optimizeSpeed; image-rendering:optimizeSpeed; shape-rendering:crispEdges; stroke:white; color-interpolation:sRGB;"
    ><rect x="0" width="570" height="413" y="0" style="stroke:none;"
      /><path style="stroke:none;" d="M74 368 L516 368 L516 31 L74 31 Z"
    /></g
    ><g style="fill:rgb(38,38,38); text-rendering:geometricPrecision; image-rendering:optimizeQuality; color-rendering:optimizeQuality; stroke-linejoin:round; stroke:rgb(38,38,38); color-interpolation:linearRGB; stroke-width:0.6667;"
    ><line y2="368" style="fill:none;" x1="74" x2="516" y1="368"
      /><line y2="363.58" style="fill:none;" x1="74" x2="74" y1="368"
      /><line y2="363.58" style="fill:none;" x1="118.2" x2="118.2" y1="368"
      /><line y2="363.58" style="fill:none;" x1="162.4" x2="162.4" y1="368"
      /><line y2="363.58" style="fill:none;" x1="206.6" x2="206.6" y1="368"
      /><line y2="363.58" style="fill:none;" x1="250.8" x2="250.8" y1="368"
      /><line y2="363.58" style="fill:none;" x1="295" x2="295" y1="368"
      /><line y2="363.58" style="fill:none;" x1="339.2" x2="339.2" y1="368"
      /><line y2="363.58" style="fill:none;" x1="383.4" x2="383.4" y1="368"
      /><line y2="363.58" style="fill:none;" x1="427.6" x2="427.6" y1="368"
      /><line y2="363.58" style="fill:none;" x1="471.8" x2="471.8" y1="368"
      /><line y2="363.58" style="fill:none;" x1="516" x2="516" y1="368"
    /></g
    ><g transform="translate(74,373.3333)" style="font-size:13.3333px; fill:rgb(38,38,38); text-rendering:geometricPrecision; image-rendering:optimizeQuality; color-rendering:optimizeQuality; font-family:'SansSerif'; stroke:rgb(38,38,38); color-interpolation:linearRGB;"
    ><text x="-7.5" xml:space="preserve" y="13" style="stroke:none;"
      >40</text
    ></g
    ><g transform="translate(118.2,373.3333)" style="font-size:13.3333px; fill:rgb(38,38,38); text-rendering:geometricPrecision; image-rendering:optimizeQuality; color-rendering:optimizeQuality; font-family:'SansSerif'; stroke:rgb(38,38,38); color-interpolation:linearRGB;"
    ><text x="-7.5" xml:space="preserve" y="13" style="stroke:none;"
      >45</text
    ></g
    ><g transform="translate(162.4,373.3333)" style="font-size:13.3333px; fill:rgb(38,38,38); text-rendering:geometricPrecision; image-rendering:optimizeQuality; color-rendering:optimizeQuality; font-family:'SansSerif'; stroke:rgb(38,38,38); color-interpolation:linearRGB;"
    ><text x="-7.5" xml:space="preserve" y="13" style="stroke:none;"
      >50</text
    ></g
    ><g transform="translate(206.6,373.3333)" style="font-size:13.3333px; fill:rgb(38,38,38); text-rendering:geometricPrecision; image-rendering:optimizeQuality; color-rendering:optimizeQuality; font-family:'SansSerif'; stroke:rgb(38,38,38); color-interpolation:linearRGB;"
    ><text x="-7.5" xml:space="preserve" y="13" style="stroke:none;"
      >55</text
    ></g
    ><g transform="translate(250.8,373.3333)" style="font-size:13.3333px; fill:rgb(38,38,38); text-rendering:geometricPrecision; image-rendering:optimizeQuality; color-rendering:optimizeQuality; font-family:'SansSerif'; stroke:rgb(38,38,38); color-interpolation:linearRGB;"
    ><text x="-7.5" xml:space="preserve" y="13" style="stroke:none;"
      >60</text
    ></g
    ><g transform="translate(295,373.3333)" style="font-size:13.3333px; fill:rgb(38,38,38); text-rendering:geometricPrecision; image-rendering:optimizeQuality; color-rendering:optimizeQuality; font-family:'SansSerif'; stroke:rgb(38,38,38); color-interpolation:linearRGB;"
    ><text x="-7.5" xml:space="preserve" y="13" style="stroke:none;"
      >65</text
    ></g
    ><g transform="translate(339.2,373.3333)" style="font-size:13.3333px; fill:rgb(38,38,38); text-rendering:geometricPrecision; image-rendering:optimizeQuality; color-rendering:optimizeQuality; font-family:'SansSerif'; stroke:rgb(38,38,38); color-interpolation:linearRGB;"
    ><text x="-7.5" xml:space="preserve" y="13" style="stroke:none;"
      >70</text
    ></g
    ><g transform="translate(383.4,373.3333)" style="font-size:13.3333px; fill:rgb(38,38,38); text-rendering:geometricPrecision; image-rendering:optimizeQuality; color-rendering:optimizeQuality; font-family:'SansSerif'; stroke:rgb(38,38,38); color-interpolation:linearRGB;"
    ><text x="-7.5" xml:space="preserve" y="13" style="stroke:none;"
      >75</text
    ></g
    ><g transform="translate(427.6,373.3333)" style="font-size:13.3333px; fill:rgb(38,38,38); text-rendering:geometricPrecision; image-rendering:optimizeQuality; color-rendering:optimizeQuality; font-family:'SansSerif'; stroke:rgb(38,38,38); color-interpolation:linearRGB;"
    ><text x="-7.5" xml:space="preserve" y="13" style="stroke:none;"
      >80</text
    ></g
    ><g transform="translate(471.8,373.3333)" style="font-size:13.3333px; fill:rgb(38,38,38); text-rendering:geometricPrecision; image-rendering:optimizeQuality; color-rendering:optimizeQuality; font-family:'SansSerif'; stroke:rgb(38,38,38); color-interpolation:linearRGB;"
    ><text x="-7.5" xml:space="preserve" y="13" style="stroke:none;"
      >85</text
    ></g
    ><g transform="translate(516,373.3333)" style="font-size:13.3333px; fill:rgb(38,38,38); text-rendering:geometricPrecision; image-rendering:optimizeQuality; color-rendering:optimizeQuality; font-family:'SansSerif'; stroke:rgb(38,38,38); color-interpolation:linearRGB;"
    ><text x="-7.5" xml:space="preserve" y="13" style="stroke:none;"
      >90</text
    ></g
    ><g style="fill:rgb(38,38,38); text-rendering:geometricPrecision; image-rendering:optimizeQuality; color-rendering:optimizeQuality; stroke-linejoin:round; stroke:rgb(38,38,38); color-interpolation:linearRGB; stroke-width:0.6667;"
    ><line y2="31" style="fill:none;" x1="74" x2="74" y1="368"
      /><line y2="368" style="fill:none;" x1="74" x2="78.42" y1="368"
      /><line y2="330.5555" style="fill:none;" x1="74" x2="78.42" y1="330.5555"
      /><line y2="293.1111" style="fill:none;" x1="74" x2="78.42" y1="293.1111"
      /><line y2="255.6667" style="fill:none;" x1="74" x2="78.42" y1="255.6667"
      /><line y2="218.2222" style="fill:none;" x1="74" x2="78.42" y1="218.2222"
      /><line y2="180.7778" style="fill:none;" x1="74" x2="78.42" y1="180.7778"
      /><line y2="143.3333" style="fill:none;" x1="74" x2="78.42" y1="143.3333"
      /><line y2="105.8889" style="fill:none;" x1="74" x2="78.42" y1="105.8889"
      /><line y2="68.4444" style="fill:none;" x1="74" x2="78.42" y1="68.4444"
      /><line y2="31" style="fill:none;" x1="74" x2="78.42" y1="31"
    /></g
    ><g transform="translate(68.6667,368)" style="font-size:13.3333px; fill:rgb(38,38,38); text-rendering:geometricPrecision; image-rendering:optimizeQuality; color-rendering:optimizeQuality; font-family:'SansSerif'; stroke:rgb(38,38,38); color-interpolation:linearRGB;"
    ><text x="-8" xml:space="preserve" y="4.5" style="stroke:none;"
      >0</text
    ></g
    ><g transform="translate(68.6667,330.5555)" style="font-size:13.3333px; fill:rgb(38,38,38); text-rendering:geometricPrecision; image-rendering:optimizeQuality; color-rendering:optimizeQuality; font-family:'SansSerif'; stroke:rgb(38,38,38); color-interpolation:linearRGB;"
    ><text x="-26" xml:space="preserve" y="4.5" style="stroke:none;"
      >0.05</text
    ></g
    ><g transform="translate(68.6667,293.1111)" style="font-size:13.3333px; fill:rgb(38,38,38); text-rendering:geometricPrecision; image-rendering:optimizeQuality; color-rendering:optimizeQuality; font-family:'SansSerif'; stroke:rgb(38,38,38); color-interpolation:linearRGB;"
    ><text x="-19" xml:space="preserve" y="4.5" style="stroke:none;"
      >0.1</text
    ></g
    ><g transform="translate(68.6667,255.6667)" style="font-size:13.3333px; fill:rgb(38,38,38); text-rendering:geometricPrecision; image-rendering:optimizeQuality; color-rendering:optimizeQuality; font-family:'SansSerif'; stroke:rgb(38,38,38); color-interpolation:linearRGB;"
    ><text x="-26" xml:space="preserve" y="4.5" style="stroke:none;"
      >0.15</text
    ></g
    ><g transform="translate(68.6667,218.2222)" style="font-size:13.3333px; fill:rgb(38,38,38); text-rendering:geometricPrecision; image-rendering:optimizeQuality; color-rendering:optimizeQuality; font-family:'SansSerif'; stroke:rgb(38,38,38); color-interpolation:linearRGB;"
    ><text x="-19" xml:space="preserve" y="4.5" style="stroke:none;"
      >0.2</text
    ></g
    ><g transform="translate(68.6667,180.7778)" style="font-size:13.3333px; fill:rgb(38,38,38); text-rendering:geometricPrecision; image-rendering:optimizeQuality; color-rendering:optimizeQuality; font-family:'SansSerif'; stroke:rgb(38,38,38); color-interpolation:linearRGB;"
    ><text x="-26" xml:space="preserve" y="4.5" style="stroke:none;"
      >0.25</text
    ></g
    ><g transform="translate(68.6667,143.3333)" style="font-size:13.3333px; fill:rgb(38,38,38); text-rendering:geometricPrecision; image-rendering:optimizeQuality; color-rendering:optimizeQuality; font-family:'SansSerif'; stroke:rgb(38,38,38); color-interpolation:linearRGB;"
    ><text x="-19" xml:space="preserve" y="4.5" style="stroke:none;"
      >0.3</text
    ></g
    ><g transform="translate(68.6667,105.8889)" style="font-size:13.3333px; fill:rgb(38,38,38); text-rendering:geometricPrecision; image-rendering:optimizeQuality; color-rendering:optimizeQuality; font-family:'SansSerif'; stroke:rgb(38,38,38); color-interpolation:linearRGB;"
    ><text x="-26" xml:space="preserve" y="4.5" style="stroke:none;"
      >0.35</text
    ></g
    ><g transform="translate(68.6667,68.4444)" style="font-size:13.3333px; fill:rgb(38,38,38); text-rendering:geometricPrecision; image-rendering:optimizeQuality; color-rendering:optimizeQuality; font-family:'SansSerif'; stroke:rgb(38,38,38); color-interpolation:linearRGB;"
    ><text x="-19" xml:space="preserve" y="4.5" style="stroke:none;"
      >0.4</text
    ></g
    ><g transform="translate(68.6667,31)" style="font-size:13.3333px; fill:rgb(38,38,38); text-rendering:geometricPrecision; image-rendering:optimizeQuality; color-rendering:optimizeQuality; font-family:'SansSerif'; stroke:rgb(38,38,38); color-interpolation:linearRGB;"
    ><text x="-26" xml:space="preserve" y="4.5" style="stroke:none;"
      >0.45</text
    ></g
    ><g style="stroke-linecap:butt; fill:rgb(0,114,189); text-rendering:geometricPrecision; image-rendering:optimizeQuality; color-rendering:optimizeQuality; stroke-linejoin:round; stroke:rgb(0,114,189); color-interpolation:linearRGB; stroke-width:0.6667;"
    ><path d="M74 332.1315 L91.68 242.9916 L109.36 290.5804 L127.04 312.8853 L144.72 254.6954 L162.4 264.6767 L180.08 344.963 L197.76 244.526 L215.44 256.1504 L233.12 132.5726 L250.8 289.0753 L268.48 236.9264 L286.16 197.9107 L303.84 147.6389 L321.52 334.6698 L339.2 243.9116 L356.88 273.8372 L374.56 168.8678 L392.24 189.8681 L409.92 313.8064 L427.6 300.0265 L445.28 313.4898 L462.96 241.5514 L480.64 51.3835 L498.32 250.7269 L516 271.1441" style="fill:none; fill-rule:evenodd;"
    /></g
  ></g
></svg
>
